^C:\USERS\RYAN APPEL\DOCUMENTS\VISUAL STUDIO 2017\PROJECTS\ASSIGNMENT 3 - POINTERS\ASSIGNMENT 3 - POINTERS\MAIN.CPP
/c /I"C:\PROGRAM FILES (X86)\VISUAL LEAK DETECTOR\INCLUDE" /ZI /nologo /W3 /WX- /diagnostics:classic /sdl /Od /Oy- /D _MBCS /Gm /EHsc /RTC1 /MDd /GS /fp:precise /Zc:wchar_t /Zc:forScope /Zc:inline /Fo"DEBUG\\" /Fd"DEBUG\VC141.PDB" /Gd /TP /analyze- C:\USERS\RYAN APPEL\DOCUMENTS\VISUAL STUDIO 2017\PROJECTS\ASSIGNMENT 3 - POINTERS\ASSIGNMENT 3 - POINTERS\MAIN.CPP
^C:\USERS\500192275\SOURCE\REPOS\BTPOINTERSASSIGNMENT\ASSIGNMENT 3 - POINTERS\ASSIGNMENT 3 - POINTERS\MAIN.CPP
/c /ZI /JMC /nologo /W3 /WX- /diagnostics:column /sdl /Od /Oy- /D _MBCS /Gm- /EHsc /RTC1 /MDd /GS /fp:precise /Zc:wchar_t /Zc:forScope /Zc:inline /Fo"DEBUG\\" /Fd"DEBUG\VC142.PDB" /external:W3 /Gd /TP /analyze- /FC C:\USERS\500192275\SOURCE\REPOS\BTPOINTERSASSIGNMENT\ASSIGNMENT 3 - POINTERS\ASSIGNMENT 3 - POINTERS\MAIN.CPP
